RV32I_PL_tb.vcd
$date
	Mon May 05 19:22:20 2025
$end
$version
	Icarus Verilog
$end
$timescale
	1ps
$end
$scope module RV32I_PL_tb $end
$var wire 1 ! zero $end
$var wire 32 " r9 [31:0] $end
$var wire 32 # r8 [31:0] $end
$var wire 32 $ r7 [31:0] $end
$var wire 32 % r6 [31:0] $end
$var wire 32 & r5 [31:0] $end
$var wire 32 ' r4 [31:0] $end
$var wire 32 ( r31 [31:0] $end
$var wire 32 ) r30 [31:0] $end
$var wire 32 * r3 [31:0] $end
$var wire 32 + r29 [31:0] $end
$var wire 32 , r28 [31:0] $end
$var wire 32 - r27 [31:0] $end
$var wire 32 . r26 [31:0] $end
$var wire 32 / r25 [31:0] $end
$var wire 32 0 r24 [31:0] $end
$var wire 32 1 r23 [31:0] $end
$var wire 32 2 r22 [31:0] $end
$var wire 32 3 r21 [31:0] $end
$var wire 32 4 r20 [31:0] $end
$var wire 32 5 r2 [31:0] $end
$var wire 32 6 r19 [31:0] $end
$var wire 32 7 r18 [31:0] $end
$var wire 32 8 r17 [31:0] $end
$var wire 32 9 r16 [31:0] $end
$var wire 32 : r15 [31:0] $end
$var wire 32 ; r14 [31:0] $end
$var wire 32 < r13 [31:0] $end
$var wire 32 = r12 [31:0] $end
$var wire 32 > r11 [31:0] $end
$var wire 32 ? r10 [31:0] $end
$var wire 32 @ r1 [31:0] $end
$var wire 32 A r0 [31:0] $end
$var reg 1 B clk $end
$var reg 1 C rst_n $end
$scope module dut $end
$var wire 1 B clk $end
$var wire 1 D en_branch $end
$var wire 1 C rst_n $end
$var wire 1 ! zero $end
$var wire 2 E writebackW [1:0] $end
$var wire 2 F writebackM [1:0] $end
$var wire 2 G writebackE [1:0] $end
$var wire 2 H writebackD [1:0] $end
$var wire 1 I wen_rfM $end
$var wire 1 J wen_rfE $end
$var wire 1 K wen_rfD $end
$var wire 32 L src_BM [31:0] $end
$var wire 32 M src_AE [31:0] $end
$var wire 32 N srcBE_tmp [31:0] $end
$var wire 32 O srcBE [31:0] $end
$var wire 5 P rs2E [4:0] $end
$var wire 5 Q rs1E [4:0] $end
$var wire 5 R rdW [4:0] $end
$var wire 5 S rdM [4:0] $end
$var wire 5 T rdE [4:0] $end
$var wire 32 U r9 [31:0] $end
$var wire 32 V r8 [31:0] $end
$var wire 32 W r7 [31:0] $end
$var wire 32 X r6 [31:0] $end
$var wire 32 Y r5 [31:0] $end
$var wire 32 Z r4 [31:0] $end
$var wire 32 [ r31 [31:0] $end
$var wire 32 \ r30 [31:0] $end
$var wire 32 ] r3 [31:0] $end
$var wire 32 ^ r29 [31:0] $end
$var wire 32 _ r28 [31:0] $end
$var wire 32 ` r27 [31:0] $end
$var wire 32 a r26 [31:0] $end
$var wire 32 b r25 [31:0] $end
$var wire 32 c r24 [31:0] $end
$var wire 32 d r23 [31:0] $end
$var wire 32 e r22 [31:0] $end
$var wire 32 f r21 [31:0] $end
$var wire 32 g r20 [31:0] $end
$var wire 32 h r2 [31:0] $end
$var wire 32 i r19 [31:0] $end
$var wire 32 j r18 [31:0] $end
$var wire 32 k r17 [31:0] $end
$var wire 32 l r16 [31:0] $end
$var wire 32 m r15 [31:0] $end
$var wire 32 n r14 [31:0] $end
$var wire 32 o r13 [31:0] $end
$var wire 32 p r12 [31:0] $end
$var wire 32 q r11 [31:0] $end
$var wire 32 r r10 [31:0] $end
$var wire 32 s r1 [31:0] $end
$var wire 32 t r0 [31:0] $end
$var wire 32 u out_writeback_result [31:0] $end
$var wire 32 v out_rf2E [31:0] $end
$var wire 32 w out_rf2D [31:0] $end
$var wire 32 x out_rf1E [31:0] $end
$var wire 32 y out_rf1D [31:0] $end
$var wire 32 z out_extendE [31:0] $end
$var wire 32 { out_extendD [31:0] $end
$var wire 1 | load_storeM $end
$var wire 1 } load_storeE $end
$var wire 1 ~ load_storeD $end
$var wire 1 !" jumpE $end
$var wire 1 "" jumpD $end
$var wire 32 #" insF [31:0] $end
$var wire 32 $" insD [31:0] $end
$var wire 2 %" fw_BE [1:0] $end
$var wire 2 &" fw_AE [1:0] $end
$var wire 3 '" funcM [2:0] $end
$var wire 3 (" funcE [2:0] $end
$var wire 3 )" funcD [2:0] $end
$var wire 1 *" en_rfW $end
$var wire 1 +" en_dmemM $end
$var wire 1 ," en_dmemE $end
$var wire 1 -" en_dmemD $end
$var wire 32 ." dmem_resultW [31:0] $end
$var wire 32 /" dmem_resultM [31:0] $end
$var wire 1 0" branchE $end
$var wire 1 1" branchD $end
$var wire 1 2" alu_srcE $end
$var wire 1 3" alu_srcD $end
$var wire 32 4" alu_resultW [31:0] $end
$var wire 32 5" alu_resultM [31:0] $end
$var wire 32 6" alu_resultE [31:0] $end
$var wire 1 7" STALLPCF $end
$var wire 1 8" STALLD $end
$var wire 8 9" PC_nextW [7:0] $end
$var wire 8 :" PC_nextM [7:0] $end
$var wire 8 ;" PC_nextF [7:0] $end
$var wire 8 <" PC_nextE [7:0] $end
$var wire 8 =" PC_nextD [7:0] $end
$var wire 8 >" PC_currentF0 [7:0] $end
$var wire 8 ?" PC_currentF [7:0] $end
$var wire 8 @" PC_currentE [7:0] $end
$var wire 8 A" PC_currentD [7:0] $end
$var wire 8 B" PC_branchF [7:0] $end
$var wire 3 C" ImmD [2:0] $end
$var wire 1 D" FLUSHE $end
$var wire 1 E" FLUSHD $end
$var wire 4 F" ALU_controlE [3:0] $end
$var wire 4 G" ALU_controlD [3:0] $end
$scope module ADD_PC_inst $end
$var wire 8 H" PC_nextF [7:0] $end
$var wire 8 I" PC_currentF [7:0] $end
$upscope $end
$scope module ADD_inst $end
$var wire 32 J" out_extend [31:0] $end
$var wire 8 K" PC_current [7:0] $end
$var wire 8 L" PC_branch [7:0] $end
$upscope $end
$scope module ALU_inst $end
$var wire 1 M" rst_n $end
$var wire 4 N" operator [3:0] $end
$var wire 32 O" b [31:0] $end
$var wire 32 P" a [31:0] $end
$var reg 32 Q" c [31:0] $end
$var reg 1 ! zero $end
$upscope $end
$scope module CONTROL_PIPELINE_inst $end
$var wire 3 R" funct3 [2:0] $end
$var wire 7 S" funct7 [6:0] $end
$var wire 7 T" opcode [6:0] $end
$var reg 4 U" ALU_control [3:0] $end
$var reg 3 V" Imm [2:0] $end
$var reg 1 3" alu_src $end
$var reg 1 1" branch $end
$var reg 1 -" en_dmem $end
$var reg 3 W" funct3_dmem [2:0] $end
$var reg 1 "" jum $end
$var reg 1 ~ load_store $end
$var reg 1 K wen_rf $end
$var reg 2 X" writeback [1:0] $end
$upscope $end
$scope module DMEM_inst $end
$var wire 8 Y" addr [7:0] $end
$var wire 1 B clk $end
$var wire 1 C rst_n $end
$var wire 32 Z" wdata [31:0] $end
$var wire 1 | load_store $end
$var wire 3 [" funct3 [2:0] $end
$var wire 1 +" cs $end
$var reg 32 \" rdata [31:0] $end
$var integer 32 ]" i [31:0] $end
$upscope $end
$scope module EXTENDv1_inst $end
$var wire 3 ^" Imm [2:0] $end
$var wire 25 _" data_in [24:0] $end
$var reg 32 `" data_out [31:0] $end
$upscope $end
$scope module EX_ME_inst $end
$var wire 32 a" alu_resultE [31:0] $end
$var wire 1 B clk $end
$var wire 1 C rst_n $end
$var wire 2 b" writebackE [1:0] $end
$var wire 1 J wen_rfE $end
$var wire 5 c" rdE [4:0] $end
$var wire 32 d" out_rf2E1 [31:0] $end
$var wire 1 } load_storeE $end
$var wire 3 e" funcE [2:0] $end
$var wire 1 ," en_dmemE $end
$var wire 8 f" PC_nextE [7:0] $end
$var reg 8 g" PC_nextM [7:0] $end
$var reg 32 h" alu_resultM [31:0] $end
$var reg 1 +" en_dmemM $end
$var reg 3 i" funcM [2:0] $end
$var reg 1 | load_storeM $end
$var reg 32 j" out_rf2M [31:0] $end
$var reg 5 k" rdM [4:0] $end
$var reg 1 I wen_rfM $end
$var reg 2 l" writebackM [1:0] $end
$upscope $end
$scope module HAZARD_UNIT_inst $end
$var wire 1 D en_branch $end
$var wire 5 m" rdM [4:0] $end
$var wire 5 n" rs1D [4:0] $end
$var wire 5 o" rs2D [4:0] $end
$var wire 1 p" rst_n $end
$var wire 1 I wen_rfM $end
$var wire 2 q" writebackE [1:0] $end
$var wire 1 *" wen_rfW $end
$var wire 5 r" rs2E [4:0] $end
$var wire 5 s" rs1E [4:0] $end
$var wire 5 t" rdW [4:0] $end
$var wire 5 u" rdE [4:0] $end
$var reg 1 E" FLUSHD $end
$var reg 1 D" FLUSHE $end
$var reg 1 8" STALLD $end
$var reg 1 7" STALLPCF $end
$var reg 2 v" fw_AE [1:0] $end
$var reg 2 w" fw_BE [1:0] $end
$upscope $end
$scope module ID_EX_inst $end
$var wire 4 x" ALU_controlD [3:0] $end
$var wire 1 3" alu_srcD $end
$var wire 1 1" branchD $end
$var wire 1 B clk $end
$var wire 1 -" en_dmemD $end
$var wire 3 y" funcD [2:0] $end
$var wire 1 "" jumpD $end
$var wire 1 ~ load_storeD $end
$var wire 32 z" out_extendD [31:0] $end
$var wire 5 {" rdD [4:0] $end
$var wire 5 |" rs1D [4:0] $end
$var wire 5 }" rs2D [4:0] $end
$var wire 1 D" rst_n $end
$var wire 1 K wen_rfD $end
$var wire 2 ~" writebackD [1:0] $end
$var wire 32 !# out_rf2D [31:0] $end
$var wire 32 "# out_rf1D [31:0] $end
$var wire 8 ## PC_nextD [7:0] $end
$var wire 8 $# PC_currentD [7:0] $end
$var reg 4 %# ALU_controlE [3:0] $end
$var reg 8 &# PC_currentE [7:0] $end
$var reg 8 '# PC_nextE [7:0] $end
$var reg 1 2" alu_srcE $end
$var reg 1 0" branchE $end
$var reg 1 ," en_dmemE $end
$var reg 3 (# funcE [2:0] $end
$var reg 1 !" jumpE $end
$var reg 1 } load_storeE $end
$var reg 32 )# out_extendE [31:0] $end
$var reg 32 *# out_rf1E [31:0] $end
$var reg 32 +# out_rf2E [31:0] $end
$var reg 5 ,# rdE [4:0] $end
$var reg 5 -# rs1E [4:0] $end
$var reg 5 .# rs2E [4:0] $end
$var reg 1 J wen_rfE $end
$var reg 2 /# writebackE [1:0] $end
$upscope $end
$scope module IF_ID_inst $end
$var wire 8 0# PC_nextF [7:0] $end
$var wire 1 B clk $end
$var wire 1 8" enIF_ID $end
$var wire 1 E" rst_n $end
$var wire 32 1# insF [31:0] $end
$var wire 8 2# PC_currentF [7:0] $end
$var reg 8 3# PC_currentD [7:0] $end
$var reg 8 4# PC_nextD [7:0] $end
$var reg 32 5# insD [31:0] $end
$upscope $end
$scope module IMEM_inst $end
$var wire 8 6# addr [7:0] $end
$var reg 32 7# rdata [31:0] $end
$upscope $end
$scope module ME_WB_inst $end
$var wire 8 8# PC_nextM [7:0] $end
$var wire 32 9# alu_resultM [31:0] $end
$var wire 1 B clk $end
$var wire 32 :# dmem_resultM [31:0] $end
$var wire 5 ;# rdM [4:0] $end
$var wire 1 C rst_n $end
$var wire 1 I wen_rfM $end
$var wire 2 <# writebackM [1:0] $end
$var reg 8 =# PC_nextW [7:0] $end
$var reg 32 ># alu_resultW [31:0] $end
$var reg 32 ?# dmem_resultW [31:0] $end
$var reg 5 @# rdW [4:0] $end
$var reg 1 *" wen_rfW $end
$var reg 2 A# writebackW [1:0] $end
$upscope $end
$scope module MUX2_inst1 $end
$var wire 32 B# b [31:0] $end
$var wire 1 2" select $end
$var wire 32 C# y [31:0] $end
$var wire 32 D# a [31:0] $end
$upscope $end
$scope module MUX2_inst2 $end
$var wire 32 E# a [31:0] $end
$var wire 32 F# b [31:0] $end
$var wire 32 G# c [31:0] $end
$var wire 32 H# d [31:0] $end
$var wire 2 I# select [1:0] $end
$var reg 32 J# y [31:0] $end
$upscope $end
$scope module MUX2v2_inst0 $end
$var wire 8 K# a [7:0] $end
$var wire 8 L# b [7:0] $end
$var wire 1 D select $end
$var wire 8 M# y [7:0] $end
$upscope $end
$scope module MUX41_inst0 $end
$var wire 32 N# a [31:0] $end
$var wire 32 O# b [31:0] $end
$var wire 32 P# c [31:0] $end
$var wire 32 Q# d [31:0] $end
$var wire 2 R# select [1:0] $end
$var reg 32 S# y [31:0] $end
$upscope $end
$scope module MUX41_inst1 $end
$var wire 32 T# a [31:0] $end
$var wire 32 U# b [31:0] $end
$var wire 32 V# c [31:0] $end
$var wire 32 W# d [31:0] $end
$var wire 2 X# select [1:0] $end
$var reg 32 Y# y [31:0] $end
$upscope $end
$scope module PCv1_inst $end
$var wire 8 Z# PC [7:0] $end
$var wire 1 B clk $end
$var wire 1 7" en $end
$var wire 1 C rst_n $end
$var reg 8 [# PC_current [7:0] $end
$upscope $end
$scope module registerfile_test_inst $end
$var wire 1 B clk $end
$var wire 32 \# r0 [31:0] $end
$var wire 32 ]# r1 [31:0] $end
$var wire 32 ^# r10 [31:0] $end
$var wire 32 _# r11 [31:0] $end
$var wire 32 `# r12 [31:0] $end
$var wire 32 a# r13 [31:0] $end
$var wire 32 b# r14 [31:0] $end
$var wire 32 c# r15 [31:0] $end
$var wire 32 d# r16 [31:0] $end
$var wire 32 e# r17 [31:0] $end
$var wire 32 f# r18 [31:0] $end
$var wire 32 g# r19 [31:0] $end
$var wire 32 h# r2 [31:0] $end
$var wire 32 i# r20 [31:0] $end
$var wire 32 j# r21 [31:0] $end
$var wire 32 k# r22 [31:0] $end
$var wire 32 l# r23 [31:0] $end
$var wire 32 m# r24 [31:0] $end
$var wire 32 n# r25 [31:0] $end
$var wire 32 o# r26 [31:0] $end
$var wire 32 p# r27 [31:0] $end
$var wire 32 q# r28 [31:0] $end
$var wire 32 r# r29 [31:0] $end
$var wire 32 s# r3 [31:0] $end
$var wire 32 t# r30 [31:0] $end
$var wire 32 u# r31 [31:0] $end
$var wire 32 v# r4 [31:0] $end
$var wire 32 w# r5 [31:0] $end
$var wire 32 x# r6 [31:0] $end
$var wire 32 y# r7 [31:0] $end
$var wire 32 z# r8 [31:0] $end
$var wire 32 {# r9 [31:0] $end
$var wire 5 |# raddr1 [4:0] $end
$var wire 5 }# raddr2 [4:0] $end
$var wire 32 ~# rdata1 [31:0] $end
$var wire 32 !$ rdata2 [31:0] $end
$var wire 1 C rst_n $end
$var wire 5 "$ waddr [4:0] $end
$var wire 32 #$ wdata [31:0] $end
$var wire 1 *" wen $end
$var integer 32 $$ i [31:0] $end
$upscope $end
$upscope $end
$upscope $end
$enddefinitions $end
#0
$dumpvars
b100000 $$
b0 #$
bx "$
bx !$
bx ~#
bx }#
bx |#
b0 {#
b0 z#
b0 y#
b0 x#
b0 w#
b0 v#
b0 u#
b0 t#
b0 s#
b0 r#
b0 q#
b0 p#
b0 o#
b0 n#
b0 m#
b0 l#
b0 k#
b0 j#
b0 i#
b0 h#
b0 g#
b0 f#
b0 e#
b0 d#
b0 c#
b0 b#
b0 a#
b0 `#
b0 _#
b0 ^#
b0 ]#
b0 \#
bx [#
bx Z#
bx Y#
b0 X#
b0 W#
b0 V#
bx U#
bx T#
bx S#
b0 R#
b0 Q#
b0 P#
bx O#
bx N#
bx M#
bx L#
bx K#
b0 J#
bx I#
b0 H#
b0xxxxxxxx G#
bx F#
bx E#
bx D#
bx C#
bx B#
bx A#
bx @#
bx ?#
bx >#
bx =#
bx <#
bx ;#
b0 :#
bx 9#
bx 8#
bx 7#
bx 6#
bx 5#
bx 4#
bx 3#
bx 2#
bx 1#
bx 0#
bx /#
bx .#
bx -#
bx ,#
bx +#
bx *#
bx )#
bx (#
bx '#
bx &#
bx %#
bx $#
bx ##
bx "#
bx !#
bx ~"
bx }"
bx |"
bx {"
bx z"
bx y"
bx x"
b0 w"
b0 v"
bx u"
bx t"
bx s"
bx r"
bx q"
zp"
bx o"
bx n"
bx m"
bx l"
bx k"
bx j"
bx i"
bx h"
bx g"
bx f"
bx e"
bx d"
bx c"
bx b"
bx a"
bx `"
bx _"
bx ^"
b100000000 ]"
b0 \"
bx ["
bx Z"
bx Y"
bx X"
bx W"
bx V"
bx U"
bx T"
bx S"
bx R"
bx Q"
bx P"
bx O"
bx N"
zM"
bx L"
bx K"
bx J"
bx I"
bx H"
bx G"
bx F"
1E"
1D"
bx C"
bx B"
bx A"
bx @"
bx ?"
bx >"
bx ="
bx <"
bx ;"
bx :"
bx 9"
18"
17"
bx 6"
bx 5"
bx 4"
x3"
x2"
x1"
x0"
b0 /"
bx ."
x-"
x,"
x+"
x*"
bx )"
bx ("
bx '"
b0 &"
b0 %"
bx $"
bx #"
x""
x!"
x~
x}
x|
bx {
bx z
bx y
bx x
bx w
bx v
b0 u
b0 t
b0 s
b0 r
b0 q
b0 p
b0 o
b0 n
b0 m
b0 l
b0 k
b0 j
b0 i
b0 h
b0 g
b0 f
b0 e
b0 d
b0 c
b0 b
b0 a
b0 `
b0 _
b0 ^
b0 ]
b0 \
b0 [
b0 Z
b0 Y
b0 X
b0 W
b0 V
b0 U
bx T
bx S
bx R
bx Q
bx P
bx O
bx N
bx M
bx L
xK
xJ
xI
bx H
bx G
bx F
bx E
xD
0C
0B
b0 A
b0 @
b0 ?
b0 >
b0 =
b0 <
b0 ;
b0 :
b0 9
b0 8
b0 7
b0 6
b0 5
b0 4
b0 3
b0 2
b0 1
b0 0
b0 /
b0 .
b0 -
b0 ,
b0 +
b0 *
b0 )
b0 (
b0 '
b0 &
b0 %
b0 $
b0 #
b0 "
x!
$end
#5000
b10100000000000010010011 #"
b10100000000000010010011 1#
b10100000000000010010011 7#
b0 Y"
b100 ;"
b100 H"
b100 0#
b100 K#
b0 ?"
b0 I"
b0 2#
b0 6#
b0 [#
b0 :"
b0 g"
b0 8#
b0 S
b0 k"
b0 m"
b0 ;#
b0 L
b0 Z"
b0 j"
b0 5"
b0 h"
b0 9#
b0 O#
b0 U#
0I
0+"
0|
b0 '"
b0 ["
b0 i"
b0 F
b0 l"
b0 <#
b0 G#
b0 9"
b0 =#
b0 R
b0 t"
b0 @#
b0 "$
b0 ."
b0 ?#
b0 F#
b0 4"
b0 >#
b0 E#
0*"
b0 E
b0 A#
b0 I#
b100000000 ]"
1B
#10000
b100000 $$
0B
#15000
b101 {
b101 `"
b101 z"
b0 H
b0 X"
b0 ~"
b0 )"
b0 W"
b0 y"
0~
0-"
b0 G"
b0 U"
b0 x"
13"
1K
b0 C"
b0 V"
b0 ^"
01"
0""
b101 o"
b0 n"
b101 }"
b0 |"
b1 {"
b1010000000000001 _"
b0 w
b0 !#
b0 !$
b101 }#
b0 y
b0 "#
b0 ~#
b0 |#
b0 S"
b0 R"
b10011 T"
b100 ="
b100 ##
b100 4#
b0 A"
b0 $#
b0 3#
b10100000000000010010011 $"
b10100000000000010010011 5#
b100000000 ]"
1B
#20000
b100000 $$
0B
#25000
b100 >"
b100 M#
b100 Z#
0!
b101 6"
b101 Q"
b101 a"
0D
b101 B"
b101 L"
b101 L#
b0 N
b0 d"
b0 D#
b0 Y#
b0 M
b0 P"
b0 S#
b101 O
b101 O"
b101 C#
b101 P
b101 r"
b101 .#
b0 Q
b0 s"
b0 -#
b100 <"
b100 f"
b100 '#
b0 @"
b0 K"
b0 &#
b1 T
b1 c"
b1 u"
b1 ,#
b101 z
b101 J"
b101 )#
b101 B#
b0 v
b0 +#
b0 T#
b0 x
b0 *#
b0 N#
1J
12"
b0 F"
b0 N"
b0 %#
0,"
0}
b0 ("
b0 e"
b0 (#
b0 G
b0 b"
b0 q"
b0 /#
00"
0!"
b100000000 ]"
1B
#30000
0B
1C
#35000
b101 Y"
b1000 >"
b1000 M#
b1000 Z#
b1100001000000100010011 #"
b1100001000000100010011 1#
b1100001000000100010011 7#
b100 :"
b100 g"
b100 8#
b1 S
b1 k"
b1 m"
b1 ;#
b101 5"
b101 h"
b101 9#
b101 O#
b101 U#
1I
b1000 ;"
b1000 H"
b1000 0#
b1000 K#
b100 ?"
b100 I"
b100 2#
b100 6#
b100 [#
1B
#40000
0B
#45000
b11 {
b11 `"
b11 z"
b1100 >"
b1100 M#
b1100 Z#
b1000000010000110100011 #"
b1000000010000110100011 1#
b1000000010000110100011 7#
b11 o"
b1 n"
b11 }"
b1 |"
b10 {"
b110000100000010 _"
b11 }#
b1 |#
b101 u
b101 J#
b101 P#
b101 V#
b101 #$
b1100 ;"
b1100 H"
b1100 0#
b1100 K#
b1000 ?"
b1000 I"
b1000 2#
b1000 6#
b1000 [#
b1000 ="
b1000 ##
b1000 4#
b100 A"
b100 $#
b100 3#
b1100001000000100010011 $"
b1100001000000100010011 5#
b100 G#
b100 9"
b100 =#
b1 R
b1 t"
b1 @#
b1 "$
b101 4"
b101 >#
b101 E#
1*"
1B
#50000
b101 y
b101 "#
b101 ~#
b101 @
b101 s
b101 ]#
0B
#55000
b1000 6"
b1000 Q"
b1000 a"
b10 )"
b10 W"
b10 y"
1~
1-"
b1 C"
b1 V"
b1 ^"
0K
13"
b1 &"
b1 v"
b1 R#
b11 O
b11 O"
b11 C#
b101 M
b101 P"
b101 S#
b10 o"
b0 n"
b10 }"
b0 |"
b11 {"
b100000001000011 _"
b10 }#
b0 y
b0 "#
b0 ~#
b0 |#
b10 R"
b100011 T"
b10000 >"
b10000 M#
b10000 Z#
b1100000010001110000011 #"
b1100000010001110000011 1#
b1100000010001110000011 7#
b11 P
b11 r"
b11 .#
b1 Q
b1 s"
b1 -#
b1000 <"
b1000 f"
b1000 '#
b111 B"
b111 L"
b111 L#
b100 @"
b100 K"
b100 &#
b10 T
b10 c"
b10 u"
b10 ,#
b11 z
b11 J"
b11 )#
b11 B#
b101 x
b101 *#
b101 N#
b1100 ="
b1100 ##
b1100 4#
b1000 A"
b1000 $#
b1000 3#
b1000000010000110100011 $"
b1000000010000110100011 5#
b10000 ;"
b10000 H"
b10000 0#
b10000 K#
b1100 ?"
b1100 I"
b1100 2#
b1100 6#
b1100 [#
1B
#60000
0B
#65000
b1 H
b1 X"
b1 ~"
b10 )"
b10 W"
b10 y"
0~
1-"
13"
1K
b0 C"
b0 V"
b0 ^"
b1000 N
b1000 d"
b1000 D#
b1000 Y#
b11 6"
b11 Q"
b11 a"
b10100 >"
b10100 M#
b10100 Z#
b100111000010010110011 #"
b100111000010010110011 1#
b100111000010010110011 7#
b11 o"
b11 }"
b111 {"
b110000001000111 _"
b11 }#
b11 T"
b1 %"
b1 w"
b1 X#
b0 &"
b0 v"
b0 R#
b0 M
b0 P"
b0 S#
b1000 Y"
b10100 ;"
b10100 H"
b10100 0#
b10100 K#
b10000 ?"
b10000 I"
b10000 2#
b10000 6#
b10000 [#
b10000 ="
b10000 ##
b10000 4#
b1100 A"
b1100 $#
b1100 3#
b1100000010001110000011 $"
b1100000010001110000011 5#
b10 P
b10 r"
b10 .#
b0 Q
b0 s"
b0 -#
b1100 <"
b1100 f"
b1100 '#
b1011 B"
b1011 L"
b1011 L#
b1000 @"
b1000 K"
b1000 &#
b11 T
b11 c"
b11 u"
b11 ,#
b0 x
b0 *#
b0 N#
0J
1,"
1}
b10 ("
b10 e"
b10 (#
b1000 :"
b1000 g"
b1000 8#
b10 S
b10 k"
b10 m"
b10 ;#
b1000 5"
b1000 h"
b1000 9#
b1000 O#
b1000 U#
1B
#70000
0B
#75000
b1 {
b1 `"
b1 z"
b0 H
b0 X"
b0 ~"
b0 )"
b0 W"
b0 y"
0-"
03"
b1000 u
b1000 J#
b1000 P#
b1000 V#
b1000 #$
b0 N
b0 d"
b0 D#
b0 Y#
b11 Y"
b0 %"
b0 w"
b0 X#
0D"
08"
07"
b1 o"
b111 n"
b1 }"
b111 |"
b1001 {"
b10011100001001 _"
b101 w
b101 !#
b101 !$
b1 }#
b111 |#
b0 R"
b110011 T"
b11000 >"
b11000 M#
b11000 Z#
b1000001000000110110011 #"
b1000001000000110110011 1#
b1000001000000110110011 7#
b1000 G#
b1000 9"
b1000 =#
b10 R
b10 t"
b10 @#
b10 "$
b1000 4"
b1000 >#
b1000 E#
b1100 :"
b1100 g"
b1100 8#
b11 S
b11 k"
b11 m"
b11 ;#
b1000 L
b1000 Z"
b1000 j"
b11 5"
b11 h"
b11 9#
b11 O#
b11 U#
0I
1+"
1|
b10 '"
b10 ["
b10 i"
b11 P
b11 r"
b11 .#
b10000 <"
b10000 f"
b10000 '#
b1111 B"
b1111 L"
b1111 L#
b1100 @"
b1100 K"
b1100 &#
b111 T
b111 c"
b111 u"
b111 ,#
1J
0}
b1 G
b1 b"
b1 q"
b1 /#
b10100 ="
b10100 ##
b10100 4#
b10000 A"
b10000 $#
b10000 3#
b100111000010010110011 $"
b100111000010010110011 5#
b11000 ;"
b11000 H"
b11000 0#
b11000 K#
b10100 ?"
b10100 I"
b10100 2#
b10100 6#
b10100 [#
1B
#80000
b1000 5
b1000 h
b1000 h#
0B
#85000
1!
b0 6"
b0 Q"
b0 a"
b0 O
b0 O"
b0 C#
1D"
18"
17"
b11 u
b11 J#
b11 P#
b11 V#
b11 #$
b0 P
b0 r"
b0 .#
b0 <"
b0 f"
b0 '#
b0 B"
b0 L"
b0 L#
b0 @"
b0 K"
b0 &#
b0 T
b0 c"
b0 u"
b0 ,#
b0 z
b0 J"
b0 )#
b0 B#
0J
02"
0,"
b0 ("
b0 e"
b0 (#
b0 G
b0 b"
b0 q"
b0 /#
b10000 :"
b10000 g"
b10000 8#
b111 S
b111 k"
b111 m"
b111 ;#
b0 L
b0 Z"
b0 j"
1I
0|
b1 F
b1 l"
b1 <#
b1100 G#
b1100 9"
b1100 =#
b11 R
b11 t"
b11 @#
b11 "$
b11 4"
b11 >#
b11 E#
0*"
1B
#90000
b1000 /"
b1000 \"
b1000 :#
0B
#95000
0!
b1101 6"
b1101 Q"
b1101 a"
b101 O
b101 O"
b101 C#
b10 {
b10 `"
b10 z"
b1000 u
b1000 J#
b1000 P#
b1000 V#
b1000 #$
b1000 M
b1000 P"
b1000 S#
b0 Y"
b10 &"
b10 v"
b10 R#
b101 N
b101 d"
b101 D#
b101 Y#
b10 o"
b1 n"
b10 }"
b1 |"
b11 {"
b100000100000011 _"
b1000 w
b1000 !#
b1000 !$
b10 }#
b101 y
b101 "#
b101 ~#
b1 |#
b11100 >"
b11100 M#
b11100 Z#
b1000000000100010000001000110011 #"
b1000000000100010000001000110011 1#
b1000000000100010000001000110011 7#
b10000 G#
b10000 9"
b10000 =#
b111 R
b111 t"
b111 @#
b111 "$
b1000 ."
b1000 ?#
b1000 F#
1*"
b1 E
b1 A#
b1 I#
b0 :"
b0 g"
b0 8#
b0 S
b0 k"
b0 m"
b0 ;#
b0 5"
b0 h"
b0 9#
b0 O#
b0 U#
0I
0+"
b0 '"
b0 ["
b0 i"
b0 F
b0 l"
b0 <#
b1 P
b1 r"
b1 .#
b111 Q
b111 s"
b111 -#
b10100 <"
b10100 f"
b10100 '#
b10001 B"
b10001 L"
b10001 L#
b10000 @"
b10000 K"
b10000 &#
b1001 T
b1001 c"
b1001 u"
b1001 ,#
b1 z
b1 J"
b1 )#
b1 B#
b101 v
b101 +#
b101 T#
1J
b11000 ="
b11000 ##
b11000 4#
b10100 A"
b10100 $#
b10100 3#
b1000001000000110110011 $"
b1000001000000110110011 5#
b11100 ;"
b11100 H"
b11100 0#
b11100 K#
b11000 ?"
b11000 I"
b11000 2#
b11000 6#
b11000 [#
1B
#100000
b1000 $
b1000 W
b1000 y#
0B
#105000
b10000000001 {
b10000000001 `"
b10000000001 z"
b1 G"
b1 U"
b1 x"
b1000 O
b1000 O"
b1000 C#
b100000 >"
b100000 M#
b100000 Z#
b10000011111001010110011 #"
b10000011111001010110011 1#
b10000011111001010110011 7#
b1 o"
b10 n"
b1 }"
b10 |"
b100 {"
b100000000010001000000100 _"
b101 w
b101 !#
b101 !$
b1 }#
b1000 y
b1000 "#
b1000 ~#
b10 |#
b100000 S"
b101 M
b101 P"
b101 S#
b1000 N
b1000 d"
b1000 D#
b1000 Y#
b1101 Y"
b0 &"
b0 v"
b0 R#
b0 u
b0 J#
b0 P#
b0 V#
b0 #$
b100000 ;"
b100000 H"
b100000 0#
b100000 K#
b11100 ?"
b11100 I"
b11100 2#
b11100 6#
b11100 [#
b11100 ="
b11100 ##
b11100 4#
b11000 A"
b11000 $#
b11000 3#
b1000000000100010000001000110011 $"
b1000000000100010000001000110011 5#
b10 P
b10 r"
b10 .#
b1 Q
b1 s"
b1 -#
b11000 <"
b11000 f"
b11000 '#
b10110 B"
b10110 L"
b10110 L#
b10100 @"
b10100 K"
b10100 &#
b11 T
b11 c"
b11 u"
b11 ,#
b10 z
b10 J"
b10 )#
b10 B#
b1000 v
b1000 +#
b1000 T#
b101 x
b101 *#
b101 N#
b10100 :"
b10100 g"
b10100 8#
b1001 S
b1001 k"
b1001 m"
b1001 ;#
b101 L
b101 Z"
b101 j"
b1101 5"
b1101 h"
b1101 9#
b1101 O#
b1101 U#
1I
b0 G#
b0 9"
b0 =#
b0 R
b0 t"
b0 @#
b0 "$
b0 4"
b0 >#
b0 E#
0*"
b0 E
b0 A#
b0 I#
1B
#110000
0B
